{
  "items": [
    {
      "status": 1,
      "uuid": "5aa19d2a-4bdf-4687-a850-1804756b3f1f",
      "manyHash": "d1e60bf3bbbe497448498f942d340b872a89046854827dc43dd703ccbf7a8c78",
      "manifestDatetime": null,
      "manifestHash": null
    },
    {
      "status": 1,
      "uuid": "38d95846-40ae-4b94-938b-b61883c8e5f2",
      "manyHash": "ad364043844ab36a5b62caa5d84ae7e58612a783de50d7ab432f26c87271dd7c",
      "manifestDatetime": null,
      "manifestHash": null
    },
    {
      "status": 1,
      "uuid": "cf341018-d919-484f-940e-558ac371429a",
      "manyHash": "b4062cc01181f7ff574e42fb6b16f3f5702d2861cb9379050b26e957fe8e6211",
      "manifestDatetime": null,
      "manifestHash": null
    },
    {
      "status": 1,
      "uuid": "581d9f8a-0427-40f2-94e0-09c730a50b55",
      "manyHash": "e6667d91561ba325de9cff37bb333fdcdbe1b7eda4bd105848b17486990cbbde",
      "manifestDatetime": null,
      "manifestHash": null
    },
    {
      "status": 1,
      "uuid": "654a2ffa-0bcd-4ade-af08-9f48905ae0cd",
      "manyHash": "3fadd8d71fdb21514367914f2ee3ce584dd76fdb766f286e01b61f530507574a",
      "manifestDatetime": null,
      "manifestHash": null
    },
    {
      "status": 1,
      "uuid": "6677d882-5f2e-45a9-9b1e-ce1459030b24",
      "manyHash": "5265826713c07712dbea02b692115c304f617cda9bb5e262eb267916349e7a53",
      "manifestDatetime": null,
      "manifestHash": null
    },
    {
      "status": 1,
      "uuid": "9d5ad47d-ab84-4148-9196-d97121572a84",
      "manyHash": "12a53d5d0ce5e5ada6c9a0b2ad0d58d0d52e8b957f1c280124960c6c7c7cc150",
      "manifestDatetime": null,
      "manifestHash": null
    },
    {
      "status": 1,
      "uuid": "c726e305-089a-4a50-b6b6-c707d45221f2",
      "manyHash": "bf06655170189f8ee52db68d17d9fd82d260406ff0cd4ce8c8deb37892e03711",
      "manifestDatetime": null,
      "manifestHash": null
    },
    {
      "status": 1,
      "uuid": "1008f70e-1c0b-4104-839b-826e4ab11531",
      "manyHash": "149b3bfeed3314e6a1af312dd760400c1fba8cebffd755fc6d3d743962be8bb4",
      "manifestDatetime": null,
      "manifestHash": null
    },
    {
      "status": 1,
      "uuid": "aeb363c3-9123-426d-a05d-67605ddf752a",
      "manyHash": "bbe7ba74a7cb625d200a79cf9aeea0c55ebcbbd37494c1c0ebf00b3e9a312447",
      "manifestDatetime": null,
      "manifestHash": null
    }
  ],
  "meta": {
    "totalItems": 11,
    "itemCount": 10,
    "itemsPerPage": 10,
    "totalPages": 2,
    "currentPage": 1
  }
}